{
  "name": "MyWebBrowserBot",
  "type": "dialog",
  "status": "Available",
  "workspace": {
    "actions": [
      {
        "steps": [
          {
            "step": "step_290",
            "output": {
              "generic": [
                {
                  "values": [
                    {
                      "text_expression": {
                        "concat": [
                          {
                            "scalar": "We're located by Union Square on the corner of 13th and Broadway"
                          }
                        ]
                      }
                    }
                  ],
                  "response_type": "text",
                  "selection_policy": "sequential"
                }
              ]
            },
            "context": {
              "variables": []
            },
            "handlers": [],
            "resolver": {
              "type": "continue"
            },
            "variable": "step_290"
          }
        ],
        "title": "#Customer_Care_Store_Location",
        "action": "action_14073",
        "handlers": [],
        "condition": {
          "intent": "action_14073_intent_17970"
        },
        "variables": [
          {
            "title": "We're located by Union Square on the corner of 13th and Broadway",
            "variable": "step_290",
            "data_type": "any"
          },
          {
            "variable": "step_290_result_1",
            "data_type": "any"
          }
        ],
        "next_action": "action_38865",
        "topic_switch": {
          "allowed_from": true,
          "allowed_into": true
        },
        "disambiguation_opt_out": false
      },
      {
        "steps": [
          {
            "step": "step_729",
            "output": {
              "generic": [
                {
                  "values": [
                    {
                      "text_expression": {
                        "concat": [
                          {
                            "scalar": "see ya"
                          }
                        ]
                      }
                    }
                  ],
                  "response_type": "text",
                  "selection_policy": "sequential"
                }
              ]
            },
            "handlers": [],
            "resolver": {
              "type": "continue"
            },
            "variable": "step_729"
          }
        ],
        "title": "#Goodbye",
        "action": "action_30170",
        "handlers": [],
        "condition": {
          "intent": "action_30170_intent_33827"
        },
        "variables": [
          {
            "variable": "step_290_result_1",
            "data_type": "any"
          },
          {
            "title": "see ya",
            "variable": "step_729",
            "data_type": "any"
          }
        ],
        "next_action": "action_42029",
        "topic_switch": {
          "allowed_from": true,
          "allowed_into": true
        },
        "disambiguation_opt_out": false
      },
      {
        "steps": [
          {
            "step": "step_635",
            "output": {
              "generic": [
                {
                  "values": [
                    {
                      "text_expression": {
                        "concat": [
                          {
                            "scalar": "Our hours are Monday to Friday 10am to 8pm and Friday and Saturday 11am to 6pm."
                          }
                        ]
                      }
                    }
                  ],
                  "response_type": "text",
                  "selection_policy": "sequential"
                }
              ]
            },
            "handlers": [],
            "resolver": {
              "type": "continue"
            },
            "variable": "step_635",
            "condition": {
              "eq": [
                {
                  "variable": "step_818"
                },
                {
                  "time": {
                    "value": "2022-02-07"
                  }
                }
              ]
            }
          },
          {
            "step": "step_818",
            "output": {
              "generic": [
                {
                  "values": [
                    {
                      "text_expression": {
                        "concat": [
                          {
                            "scalar": "We are Open 24X7"
                          }
                        ]
                      }
                    }
                  ],
                  "response_type": "text",
                  "selection_policy": "sequential"
                }
              ]
            },
            "handlers": [
              {
                "type": "not_found",
                "title": "validation_not_found_handler",
                "output": {
                  "generic": [
                    {
                      "values": [
                        {
                          "text": "I'm sorry, I did not catch that, please restate your response."
                        }
                      ],
                      "response_type": "text"
                    }
                  ]
                },
                "handler": "validation_not_found_handler",
                "resolver": {
                  "type": "prompt_again"
                },
                "next_handler": "validation_not_found_max_tries_handler"
              },
              {
                "type": "not_found_max_tries",
                "title": "validation_not_found_max_tries_handler",
                "handler": "validation_not_found_max_tries_handler",
                "resolver": {
                  "type": "fallback"
                }
              }
            ],
            "question": {
              "entity": "sys-date",
              "max_tries": 3,
              "only_populate_when_prompted": true
            },
            "resolver": {
              "type": "continue"
            },
            "variable": "step_818",
            "next_step": "step_635"
          }
        ],
        "title": "#Customer_Care_Store_Hours",
        "action": "action_36415",
        "handlers": [],
        "condition": {
          "intent": "action_36415_intent_21744"
        },
        "variables": [
          {
            "variable": "step_290_result_1",
            "data_type": "any"
          },
          {
            "title": "Our hours are Monday to Friday 10am to 8pm and Friday and Saturd",
            "variable": "step_635",
            "data_type": "any"
          },
          {
            "title": "We are Open 24X7",
            "variable": "step_818",
            "data_type": "any"
          }
        ],
        "next_action": "action_38265",
        "topic_switch": {
          "allowed_from": true,
          "allowed_into": true
        },
        "disambiguation_opt_out": false
      },
      {
        "steps": [
          {
            "step": "step_350",
            "output": {
              "generic": [
                {
                  "values": [
                    {
                      "text_expression": {
                        "concat": [
                          {
                            "scalar": "Please tell me what else can I do for you?"
                          }
                        ]
                      }
                    }
                  ],
                  "response_type": "text",
                  "selection_policy": "sequential"
                }
              ]
            },
            "handlers": [],
            "resolver": {
              "type": "continue"
            },
            "variable": "step_350",
            "condition": {
              "exists": {
                "skill_variable": "FLAG"
              }
            },
            "next_step": "step_847"
          },
          {
            "step": "step_847",
            "handlers": [],
            "resolver": {
              "type": "continue"
            },
            "variable": "step_847"
          }
        ],
        "title": "#Anything_Else",
        "action": "action_38265",
        "handlers": [],
        "condition": {
          "intent": "action_38265_intent_24689"
        },
        "variables": [
          {
            "title": "Please tell me what else can I do for you?",
            "variable": "step_350",
            "data_type": "any"
          },
          {
            "variable": "step_397_result_1",
            "data_type": "any"
          },
          {
            "title": "No response",
            "variable": "step_847",
            "data_type": "any"
          }
        ],
        "next_action": "action_14073",
        "topic_switch": {
          "allowed_from": true,
          "allowed_into": true
        },
        "disambiguation_opt_out": false
      },
      {
        "steps": [
          {
            "step": "step_109",
            "output": {
              "generic": [
                {
                  "values": [
                    {
                      "text_expression": {
                        "concat": [
                          {
                            "scalar": "Please share a name in which the appointment can be booked."
                          }
                        ]
                      }
                    }
                  ],
                  "response_type": "text",
                  "selection_policy": "sequential"
                }
              ]
            },
            "context": {
              "variables": [
                {
                  "value": {
                    "variable": "step_757"
                  },
                  "skill_variable": "app_date"
                }
              ]
            },
            "handlers": [],
            "question": {
              "free_text": true,
              "only_populate_when_prompted": true
            },
            "resolver": {
              "type": "continue"
            },
            "variable": "step_109",
            "next_step": "step_593"
          },
          {
            "step": "step_365",
            "output": {
              "generic": [
                {
                  "values": [
                    {
                      "text_expression": {
                        "concat": [
                          {
                            "scalar": "Please tell me what else can I do for you"
                          }
                        ]
                      }
                    }
                  ],
                  "response_type": "text",
                  "selection_policy": "sequential"
                }
              ]
            },
            "context": {
              "variables": [
                {
                  "value": {
                    "variable": "step_397"
                  },
                  "skill_variable": "FLAG"
                }
              ]
            },
            "handlers": [],
            "resolver": {
              "type": "continue"
            },
            "variable": "step_365",
            "condition": {
              "expression": "${step_397} == 'yes'"
            },
            "next_step": "step_857"
          },
          {
            "step": "step_397",
            "output": {
              "generic": [
                {
                  "values": [
                    {
                      "text_expression": {
                        "concat": [
                          {
                            "scalar": "Thanks! "
                          },
                          {
                            "skill_variable": "UserName"
                          },
                          {
                            "scalar": " ! You appointment is confirmed for "
                          },
                          {
                            "skill_variable": "app_date"
                          },
                          {
                            "scalar": " in the slot "
                          },
                          {
                            "skill_variable": "app_time"
                          },
                          {
                            "scalar": ". Is there anything else I can help you with?"
                          }
                        ]
                      }
                    }
                  ],
                  "response_type": "text",
                  "selection_policy": "sequential"
                }
              ]
            },
            "context": {
              "variables": [
                {
                  "value": {
                    "variable": "step_593"
                  },
                  "skill_variable": "app_time"
                },
                {
                  "value": {
                    "variable": "step_593"
                  },
                  "skill_variable": "FLAG"
                }
              ]
            },
            "handlers": [],
            "question": {
              "free_text": true,
              "only_populate_when_prompted": true
            },
            "resolver": {
              "type": "continue"
            },
            "variable": "step_397",
            "next_step": "step_365"
          },
          {
            "step": "step_593",
            "output": {
              "generic": [
                {
                  "values": [
                    {
                      "text_expression": {
                        "concat": [
                          {
                            "scalar": "Thanks "
                          },
                          {
                            "skill_variable": "UserName"
                          },
                          {
                            "scalar": " ! Wait while we fetch the available slots for you.\n**Available time slots for**"
                          }
                        ]
                      }
                    }
                  ],
                  "response_type": "text",
                  "selection_policy": "sequential"
                },
                {
                  "options": [
                    {
                      "label": "8:00 am - 9:00 am",
                      "value": {
                        "input": {
                          "text": "8:00 am - 9:00 am"
                        }
                      }
                    },
                    {
                      "label": "11:00 am - 1:00 pm",
                      "value": {
                        "input": {
                          "text": "11:00 am - 1:00 pm"
                        }
                      }
                    }
                  ],
                  "response_type": "option",
                  "repeat_on_reprompt": true
                }
              ]
            },
            "context": {
              "variables": [
                {
                  "value": {
                    "variable": "step_109"
                  },
                  "skill_variable": "UserName"
                }
              ]
            },
            "handlers": [
              {
                "type": "not_found",
                "title": "validation_not_found_handler",
                "output": {
                  "generic": [
                    {
                      "values": [
                        {
                          "text": "I didn't catch that. Select a valid option:"
                        }
                      ],
                      "response_type": "text"
                    }
                  ]
                },
                "handler": "validation_not_found_handler",
                "resolver": {
                  "type": "prompt_again"
                },
                "next_handler": "validation_not_found_max_tries_handler"
              },
              {
                "type": "not_found_max_tries",
                "title": "validation_not_found_max_tries_handler",
                "handler": "validation_not_found_max_tries_handler",
                "resolver": {
                  "type": "fallback"
                }
              }
            ],
            "question": {
              "entity": "entity_28817",
              "max_tries": 3
            },
            "resolver": {
              "type": "continue"
            },
            "variable": "step_593",
            "next_step": "step_397"
          },
          {
            "step": "step_757",
            "output": {
              "generic": [
                {
                  "values": [
                    {
                      "text_expression": {
                        "concat": [
                          {
                            "scalar": "Which day would you like to come?"
                          }
                        ]
                      }
                    }
                  ],
                  "response_type": "text",
                  "selection_policy": "sequential"
                }
              ]
            },
            "context": {
              "variables": []
            },
            "handlers": [
              {
                "type": "not_found",
                "title": "validation_not_found_handler",
                "output": {
                  "generic": [
                    {
                      "values": [
                        {
                          "text": "I'm sorry, I did not catch that, please restate your response."
                        }
                      ],
                      "response_type": "text"
                    }
                  ]
                },
                "handler": "validation_not_found_handler",
                "resolver": {
                  "type": "prompt_again"
                },
                "next_handler": "validation_not_found_max_tries_handler"
              },
              {
                "type": "not_found_max_tries",
                "title": "validation_not_found_max_tries_handler",
                "handler": "validation_not_found_max_tries_handler",
                "resolver": {
                  "type": "fallback"
                }
              }
            ],
            "question": {
              "entity": "sys-date",
              "max_tries": 3
            },
            "resolver": {
              "type": "continue"
            },
            "variable": "step_757",
            "next_step": "step_109"
          },
          {
            "step": "step_857",
            "handlers": [],
            "resolver": {
              "type": "end_action"
            },
            "variable": "step_857",
            "condition": {
              "expression": "${step_397} == 'no'"
            }
          }
        ],
        "title": "#Customer_Care_Appointments",
        "action": "action_38865",
        "handlers": [],
        "condition": {
          "intent": "action_38865_intent_19178"
        },
        "variables": [
          {
            "title": "Please share a name in which the appointment can be booked.",
            "variable": "step_109",
            "data_type": "any"
          },
          {
            "title": "Please tell me what else can I do for you",
            "variable": "step_365",
            "data_type": "any"
          },
          {
            "variable": "step_365_result_1",
            "data_type": "any"
          },
          {
            "title": "Thanks! {variable} ! You appointment is confirmed for {variable}",
            "variable": "step_397",
            "data_type": "any"
          },
          {
            "variable": "step_397_result_1",
            "data_type": "any"
          },
          {
            "variable": "step_433_result_1",
            "data_type": "any"
          },
          {
            "title": "Thanks {variable} ! Wait while we fetch the available slots for ",
            "variable": "step_593",
            "data_type": "any"
          },
          {
            "title": "Which day would you like to come?",
            "variable": "step_757",
            "data_type": "any"
          },
          {
            "title": "No response",
            "variable": "step_857",
            "data_type": "any"
          }
        ],
        "next_action": "action_9879",
        "topic_switch": {
          "allowed_from": true,
          "allowed_into": true
        },
        "disambiguation_opt_out": false
      },
      {
        "steps": [
          {
            "step": "step_496",
            "output": {
              "generic": [
                {
                  "values": [],
                  "response_type": "text",
                  "selection_policy": "sequential"
                }
              ]
            },
            "handlers": [],
            "resolver": {
              "type": "continue"
            },
            "variable": "step_496"
          }
        ],
        "title": "#Customer_Care_Reviews",
        "action": "action_42029",
        "handlers": [],
        "condition": {
          "intent": "action_42029_intent_47001"
        },
        "variables": [
          {
            "title": "No response",
            "variable": "step_496",
            "data_type": "any"
          }
        ],
        "next_action": "action_36415",
        "topic_switch": {
          "allowed_from": true,
          "allowed_into": true
        },
        "disambiguation_opt_out": false
      },
      {
        "steps": [
          {
            "step": "step_489",
            "output": {
              "generic": [
                {
                  "values": [
                    {
                      "text_expression": {
                        "concat": [
                          {
                            "scalar": "Is there anything else i can help you with?"
                          }
                        ]
                      }
                    }
                  ],
                  "response_type": "text",
                  "selection_policy": "sequential"
                }
              ]
            },
            "handlers": [],
            "question": {
              "free_text": true,
              "only_populate_when_prompted": true
            },
            "resolver": {
              "type": "continue"
            },
            "variable": "step_489",
            "next_step": "step_670"
          },
          {
            "step": "step_670",
            "handlers": [],
            "resolver": {
              "type": "continue"
            },
            "variable": "step_670"
          }
        ],
        "title": "#Thanks",
        "action": "action_49166",
        "handlers": [],
        "condition": {
          "intent": "action_49166_intent_17997"
        },
        "variables": [
          {
            "variable": "step_290_result_1",
            "data_type": "any"
          },
          {
            "title": "Is there anything else i can help you with?",
            "variable": "step_489",
            "data_type": "any"
          },
          {
            "title": "No response",
            "variable": "step_670",
            "data_type": "any"
          }
        ],
        "next_action": "action_30170",
        "topic_switch": {
          "allowed_from": true,
          "allowed_into": true
        },
        "disambiguation_opt_out": false
      },
      {
        "steps": [
          {
            "step": "step_531",
            "output": {
              "generic": [
                {
                  "values": [
                    {
                      "text_expression": {
                        "concat": [
                          {
                            "scalar": "Welcome to the dealership. Hi! I’m a virtual assistant. How can I help you today?"
                          }
                        ]
                      }
                    }
                  ],
                  "response_type": "text",
                  "selection_policy": "sequential"
                }
              ]
            },
            "handlers": [],
            "resolver": {
              "type": "continue"
            },
            "variable": "step_531"
          }
        ],
        "title": "Welcome",
        "action": "action_49258",
        "handlers": [],
        "condition": {
          "intent": "action_49258_intent_37201"
        },
        "variables": [
          {
            "variable": "step_433_result_1",
            "data_type": "any"
          },
          {
            "title": "Welcome to the dealership. Hi! I’m a virtual assistant. How can ",
            "variable": "step_531",
            "data_type": "any"
          }
        ],
        "next_action": "fallback",
        "topic_switch": {
          "allowed_from": true,
          "allowed_into": true
        },
        "disambiguation_opt_out": false
      },
      {
        "steps": [
          {
            "step": "step_749",
            "output": {
              "generic": [
                {
                  "values": [
                    {
                      "text_expression": {
                        "concat": [
                          {
                            "scalar": "Your request has been canceled"
                          }
                        ]
                      }
                    }
                  ],
                  "response_type": "text",
                  "selection_policy": "sequential"
                }
              ]
            },
            "handlers": [],
            "resolver": {
              "type": "continue"
            },
            "variable": "step_749"
          }
        ],
        "title": "#Cancel",
        "action": "action_9082",
        "handlers": [],
        "condition": {
          "intent": "action_9082_intent_12369"
        },
        "variables": [
          {
            "title": "Your request has been canceled",
            "variable": "step_749",
            "data_type": "any"
          }
        ],
        "next_action": "action_49166",
        "topic_switch": {
          "allowed_from": true,
          "allowed_into": true
        },
        "disambiguation_opt_out": false
      },
      {
        "steps": [
          {
            "step": "step_230",
            "output": {
              "generic": [
                {
                  "values": [
                    {
                      "text_expression": {
                        "concat": [
                          {
                            "scalar": "I can tell you about our store locations and opening hours, or help you set up an appointment."
                          }
                        ]
                      }
                    }
                  ],
                  "response_type": "text",
                  "selection_policy": "sequential"
                }
              ]
            },
            "handlers": [],
            "resolver": {
              "type": "continue"
            },
            "variable": "step_230"
          }
        ],
        "title": "#Help",
        "action": "action_9879",
        "handlers": [],
        "condition": {
          "intent": "action_9879_intent_12472"
        },
        "variables": [
          {
            "title": "I can tell you about our store locations and opening hours, or h",
            "variable": "step_230",
            "data_type": "any"
          }
        ],
        "next_action": "action_49258",
        "topic_switch": {
          "allowed_from": true,
          "allowed_into": true
        },
        "disambiguation_opt_out": false
      },
      {
        "steps": [
          {
            "step": "step_001",
            "output": {
              "generic": [
                {
                  "values": [
                    {
                      "text": "I'm afraid I don't understand. Please rephrase your question."
                    }
                  ],
                  "response_type": "text",
                  "selection_policy": "sequential"
                }
              ]
            },
            "handlers": [],
            "resolver": {
              "type": "end_action"
            },
            "variable": "step_001",
            "condition": {
              "lte": [
                {
                  "system_variable": "no_action_matches_count"
                },
                {
                  "scalar": 3
                }
              ]
            },
            "next_step": "step_002"
          },
          {
            "step": "step_002",
            "output": {
              "generic": [
                {
                  "values": [
                    {
                      "text": ""
                    }
                  ],
                  "response_type": "text",
                  "selection_policy": "sequential"
                }
              ]
            },
            "handlers": [],
            "resolver": {
              "type": "invoke_another_action_and_end",
              "invoke_action": {
                "action": "fallback",
                "parameters": null,
                "result_variable": "step_002_result_1"
              }
            },
            "variable": "step_002",
            "condition": {
              "gt": [
                {
                  "system_variable": "no_action_matches_count"
                },
                {
                  "scalar": 3
                }
              ]
            }
          }
        ],
        "title": "No action matches",
        "action": "anything_else",
        "handlers": [],
        "condition": {
          "expression": "anything_else"
        },
        "variables": [
          {
            "title": "I am afraid I do not understand what you are asking, please re-p",
            "variable": "step_001",
            "data_type": "any"
          },
          {
            "variable": "step_002",
            "data_type": "any"
          },
          {
            "variable": "step_002_result_1",
            "data_type": "any"
          }
        ],
        "disambiguation_opt_out": true
      },
      {
        "steps": [
          {
            "step": "step_001",
            "output": {
              "generic": [
                {
                  "values": [
                    {
                      "text": "I'm afraid I don't understand. I can connect you to an agent."
                    }
                  ],
                  "response_type": "text",
                  "selection_policy": "sequential"
                }
              ]
            },
            "handlers": [],
            "resolver": {
              "type": "connect_to_agent",
              "response": {
                "transfer_info": {
                  "target": {}
                },
                "agent_available": {
                  "message": "Let's send you to an available agent."
                },
                "agent_unavailable": {
                  "message": "There are no agents available at this time. When one becomes available, we'll connect you."
                },
                "message_to_human_agent": ""
              }
            },
            "variable": "step_001",
            "condition": {
              "eq": [
                {
                  "system_variable": "fallback_reason"
                },
                {
                  "scalar": "Step validation failed"
                }
              ]
            },
            "next_step": "step_002"
          },
          {
            "step": "step_002",
            "output": {
              "generic": [
                {
                  "values": [
                    {
                      "text": "Sorry I couldn't assist you. I will connect you to an agent right away."
                    }
                  ],
                  "response_type": "text",
                  "selection_policy": "sequential"
                }
              ]
            },
            "handlers": [],
            "resolver": {
              "type": "connect_to_agent",
              "response": {
                "transfer_info": {
                  "target": {}
                },
                "agent_available": {
                  "message": "Let's send you to an available agent."
                },
                "agent_unavailable": {
                  "message": "There are no agents available at this time. When one becomes available, we'll connect you."
                },
                "message_to_human_agent": ""
              }
            },
            "variable": "step_002",
            "condition": {
              "eq": [
                {
                  "system_variable": "fallback_reason"
                },
                {
                  "scalar": "Agent requested"
                }
              ]
            },
            "next_step": "step_003"
          },
          {
            "step": "step_003",
            "output": {
              "generic": [
                {
                  "values": [
                    {
                      "text": "I am afraid I do not understand what you are asking, let me connect you to an agent."
                    }
                  ],
                  "response_type": "text",
                  "selection_policy": "sequential"
                }
              ]
            },
            "handlers": [],
            "resolver": {
              "type": "connect_to_agent",
              "response": {
                "transfer_info": {
                  "target": {}
                },
                "agent_available": {
                  "message": "Let's send you to an available agent."
                },
                "agent_unavailable": {
                  "message": "There are no agents available at this time. When one becomes available, we'll connect you."
                },
                "message_to_human_agent": ""
              }
            },
            "variable": "step_003",
            "condition": {
              "eq": [
                {
                  "system_variable": "fallback_reason"
                },
                {
                  "scalar": "No action matches"
                }
              ]
            }
          }
        ],
        "title": "Fallback",
        "action": "fallback",
        "handlers": [],
        "condition": {
          "intent": "fallback_connect_to_agent"
        },
        "variables": [
          {
            "title": "I'm afraid I don't understand. I can connect you to an agent.",
            "variable": "step_001",
            "data_type": "any"
          },
          {
            "title": "Sorry I couldn't assist you. I will connect you to an agent righ",
            "variable": "step_002",
            "data_type": "any"
          },
          {
            "title": "I am afraid I do not understand what you are asking, let me conn",
            "variable": "step_003",
            "data_type": "any"
          }
        ],
        "next_action": "anything_else",
        "disambiguation_opt_out": true
      },
      {
        "steps": [
          {
            "step": "step_001",
            "output": {
              "generic": [
                {
                  "values": [
                    {
                      "text_expression": {
                        "concat": [
                          {
                            "scalar": "Welcome to the dealership. Hi! I’m a virtual assistant. How can I help you today?"
                          }
                        ]
                      }
                    }
                  ],
                  "response_type": "text",
                  "selection_policy": "sequential"
                }
              ]
            },
            "handlers": [],
            "resolver": {
              "type": "continue"
            },
            "variable": "step_001"
          }
        ],
        "title": "Greet customer",
        "action": "welcome",
        "handlers": [],
        "condition": {
          "expression": "welcome"
        },
        "variables": [
          {
            "title": "Welcome to the dealership. Hi! I’m a virtual assistant. How can ",
            "variable": "step_001",
            "data_type": "any"
          }
        ],
        "next_action": "action_9082",
        "disambiguation_opt_out": true
      }
    ],
    "intents": [
      {
        "intent": "action_14073_intent_17970",
        "examples": [
          {
            "text": "can you give me directions"
          },
          {
            "text": "Find store"
          },
          {
            "text": "give me directions"
          },
          {
            "text": "how can i get to you from grand central"
          },
          {
            "text": "how do i find you"
          },
          {
            "text": "how do i get to your business"
          },
          {
            "text": "how do i get to your place"
          },
          {
            "text": "I'd like to go to a store"
          },
          {
            "text": "I need help with find a store"
          },
          {
            "text": "I want to know about a store"
          },
          {
            "text": "location please"
          },
          {
            "text": "Looking for a location"
          },
          {
            "text": "please suggest route from times square"
          },
          {
            "text": "what is the address"
          },
          {
            "text": "what's your location"
          },
          {
            "text": "where are you"
          },
          {
            "text": "where are you located"
          },
          {
            "text": "Where are you located?"
          },
          {
            "text": "Where is?"
          },
          {
            "text": "Where is your office?"
          },
          {
            "text": "which cross streets are you on"
          }
        ]
      },
      {
        "intent": "action_30170_intent_33827",
        "examples": [
          {
            "text": "arrivederci"
          },
          {
            "text": "bye"
          },
          {
            "text": "ciao"
          },
          {
            "text": "Goodbye"
          },
          {
            "text": "see ya"
          },
          {
            "text": "so long"
          }
        ]
      },
      {
        "intent": "action_36415_intent_21744",
        "examples": [
          {
            "text": "Are the stores open early?"
          },
          {
            "text": "Are you closed new Year's eve"
          },
          {
            "text": "Are you closing early today"
          },
          {
            "text": "Are you open during thanksgiving?"
          },
          {
            "text": "Are you open on bank holidays?"
          },
          {
            "text": "Are you open on Sunday"
          },
          {
            "text": "Are you open on sundays, and if so what are the hours?"
          },
          {
            "text": "At what hour can I swing by?"
          },
          {
            "text": "Can you tell me how late the stores are open till?"
          },
          {
            "text": "Does the store in the city center opens till 8pm on weekends?"
          },
          {
            "text": "Hours of operation"
          },
          {
            "text": "How early do you open?"
          },
          {
            "text": "how early do you open on Saturdays"
          },
          {
            "text": "how late are you open"
          },
          {
            "text": "how late are you open tonight"
          },
          {
            "text": "how late are you there"
          },
          {
            "text": "how late y'all stay up till"
          },
          {
            "text": "How long are you open?"
          },
          {
            "text": "Is the branch open now?"
          },
          {
            "text": "open hours store"
          },
          {
            "text": "store hours"
          },
          {
            "text": "store hrs"
          },
          {
            "text": "store open"
          },
          {
            "text": "store open hours?"
          },
          {
            "text": "store open now"
          },
          {
            "text": "What are the business hours of the store nearest to me?"
          },
          {
            "text": "What are the hours of operation?"
          },
          {
            "text": "What are the saturday opening times for the local store?"
          },
          {
            "text": "What are ur opening hours?"
          },
          {
            "text": "what are your hours"
          },
          {
            "text": "What are your hous?"
          },
          {
            "text": "What is the opening time for the washington store?"
          },
          {
            "text": "What time are you closing today?"
          },
          {
            "text": "What time do stores close?"
          },
          {
            "text": "What time do you close"
          },
          {
            "text": "what time do you close on Sunday"
          },
          {
            "text": "What time do you close today"
          },
          {
            "text": "What time do you open on Saturdays"
          },
          {
            "text": "when can i visit your store"
          },
          {
            "text": "when does the store close"
          },
          {
            "text": "when do you close"
          },
          {
            "text": "when do your stores open"
          },
          {
            "text": "will you be open Memorial day"
          },
          {
            "text": "will you open for christmas"
          },
          {
            "text": "will you open on christmas"
          },
          {
            "text": "Working hours"
          }
        ]
      },
      {
        "intent": "action_38265_intent_24689",
        "examples": []
      },
      {
        "intent": "action_38865_intent_19178",
        "examples": [
          {
            "text": "are you available on tuesday"
          },
          {
            "text": "Can I book an in person session"
          },
          {
            "text": "can i book for tonight"
          },
          {
            "text": "can i make an appointment"
          },
          {
            "text": "can you make an appointment for me"
          },
          {
            "text": "Could I speak to someone in the store next tuesday?"
          },
          {
            "text": "do you have availability next week"
          },
          {
            "text": "i'd like to come in for an appointment"
          },
          {
            "text": "i'd like to make an appointment"
          },
          {
            "text": "I prefer a face to face visit"
          },
          {
            "text": "I want to talk in person with someone about my case"
          },
          {
            "text": "I would like to come in"
          },
          {
            "text": "I would like to discuss my situation face to face"
          },
          {
            "text": "I would like to make an appointment to visit the nearest store to my location."
          },
          {
            "text": "Make an appointment"
          },
          {
            "text": "meet in store"
          },
          {
            "text": "Set up an appt"
          },
          {
            "text": "Store appointment"
          },
          {
            "text": "Want to change my visit"
          },
          {
            "text": "What time can I meet the staff?"
          },
          {
            "text": "When can I meet with one of your employees at your store?"
          }
        ]
      },
      {
        "intent": "action_42029_intent_47001",
        "examples": [
          {
            "text": "Can I see the reviews for your dealership"
          },
          {
            "text": "I would like to see the reviews"
          },
          {
            "text": "Show customer reviews"
          },
          {
            "text": "Show me the reviews"
          },
          {
            "text": "Show reviews for dealership"
          },
          {
            "text": "Show the review page"
          },
          {
            "text": "What are the reviews"
          }
        ]
      },
      {
        "intent": "action_49166_intent_17997",
        "examples": [
          {
            "text": "Alright"
          },
          {
            "text": "great"
          },
          {
            "text": "ok"
          },
          {
            "text": "okay"
          },
          {
            "text": "Thanks"
          },
          {
            "text": "Thank you"
          }
        ]
      },
      {
        "intent": "action_49258_intent_37201",
        "examples": [
          {
            "text": "hello"
          },
          {
            "text": "hey"
          },
          {
            "text": "hi"
          },
          {
            "text": "hola"
          },
          {
            "text": "wassup"
          },
          {
            "text": "what's up"
          },
          {
            "text": "yo"
          }
        ]
      },
      {
        "intent": "action_9082_intent_12369",
        "examples": [
          {
            "text": "cancel"
          },
          {
            "text": "cancel it"
          },
          {
            "text": "forget it"
          },
          {
            "text": "i changed my mind"
          },
          {
            "text": "i don't want a table anymore anymore"
          },
          {
            "text": "never mind"
          },
          {
            "text": "nevermind"
          }
        ]
      },
      {
        "intent": "action_9879_intent_12472",
        "examples": [
          {
            "text": "can you assist me"
          },
          {
            "text": "can you help"
          },
          {
            "text": "help"
          },
          {
            "text": "help me"
          },
          {
            "text": "help me decide"
          },
          {
            "text": "I need help"
          },
          {
            "text": "i need your assistance"
          },
          {
            "text": "please assist me"
          },
          {
            "text": "what can i do"
          },
          {
            "text": "what can i say"
          }
        ]
      },
      {
        "intent": "fallback_connect_to_agent",
        "examples": [
          {
            "text": "Agent help"
          },
          {
            "text": "Call agent"
          },
          {
            "text": "Can I connect to an agent?"
          },
          {
            "text": "I would like to speak to a human"
          },
          {
            "text": "I would like to speak to someone"
          }
        ],
        "description": "Please transfer me to an agent"
      }
    ],
    "entities": [
      {
        "entity": "entity_28817",
        "values": [
          {
            "type": "synonyms",
            "value": "11:00 am - 1:00 pm",
            "synonyms": []
          },
          {
            "type": "synonyms",
            "value": "8:00 am - 9:00 am",
            "synonyms": []
          }
        ],
        "fuzzy_match": true
      },
      {
        "entity": "sys-date",
        "values": []
      }
    ],
    "metadata": {
      "api_version": {
        "major_version": "v2",
        "minor_version": "2018-11-08"
      }
    },
    "variables": [
      {
        "title": "app-date",
        "variable": "app_date",
        "data_type": "any",
        "description": ""
      },
      {
        "title": "app-time",
        "variable": "app_time",
        "data_type": "any",
        "description": ""
      },
      {
        "title": "FLAG",
        "variable": "FLAG",
        "data_type": "any",
        "description": "",
        "initial_value": {
          "scalar": "yes"
        }
      },
      {
        "title": "holidays",
        "variable": "holidays",
        "data_type": "any",
        "description": ""
      },
      {
        "title": "Hour",
        "variable": "Hour",
        "data_type": "any",
        "description": ""
      },
      {
        "title": "Location",
        "variable": "Location",
        "data_type": "any",
        "description": ""
      },
      {
        "title": "test",
        "variable": "test",
        "data_type": "any",
        "description": ""
      },
      {
        "title": "UserName",
        "variable": "UserName",
        "data_type": "any",
        "description": ""
      },
      {
        "title": "webhook",
        "variable": "webhook",
        "data_type": "any",
        "description": ""
      }
    ],
    "data_types": [],
    "counterexamples": [],
    "system_settings": {
      "topic_switch": {
        "enabled": true,
        "messages": {
          "confirm_return": {
            "text": "Return to previous topic?"
          },
          "confirm_switch": {
            "text": "Switch from the current topic?"
          }
        },
        "question_steps_threshold": 2
      },
      "disambiguation": {
        "prompt": "Did you mean:",
        "enabled": true,
        "randomize": true,
        "max_suggestions": 5,
        "suggestion_text_policy": "title",
        "none_of_the_above_prompt": "None of the above"
      },
      "intent_classification": {
        "training_backend_version": "v2"
      },
      "spelling_auto_correct": true
    },
    "learning_opt_out": false
  },
  "description": "created for assistant for dealership",
  "dialog_settings": {
    "actions": true
  },
  "next_snapshot_version": "1"
}